Name             Stmts   Miss Branch BrPart  Cover   Missing
------------------------------------------------------------
Netflix.py          48      3      6      1    93%   25-28, 21->25
TestNetflix.py      31      0      0      0   100%
------------------------------------------------------------
TOTAL               79      3      6      1    95%
